{"count":940,"pages":10,"current_page":1,"results":[{"rank":1,"ticker":"BTC.X","name":"Bitcoin","mentions":"1294","upvotes":"6306","rank_24h_ago":"1","mentions_24h_ago":"1833"},{"rank":2,"ticker":"ETH.X","name":"Ethereum","mentions":"1259","upvotes":"6972","rank_24h_ago":"2","mentions_24h_ago":"1544"},{"rank":3,"ticker":"LRC.X","name":"Loopring","mentions":"1211","upvotes":"8895","rank_24h_ago":"25","mentions_24h_ago":"238"},{"rank":4,"ticker":"LTO.X","name":"LTO Network","mentions":"541","upvotes":"2555","rank_24h_ago":"22","mentions_24h_ago":"67"},{"rank":5,"ticker":"ADA.X","name":"Cardano","mentions":"295","upvotes":"833","rank_24h_ago":"3","mentions_24h_ago":"489"},{"rank":6,"ticker":"DOT.X","name":"Polkadot","mentions":"286","upvotes":"2663","rank_24h_ago":"7","mentions_24h_ago":"151"},{"rank":7,"ticker":"GME.X","name":"GameStop tokenized stock FTX","mentions":"209","upvotes":"1441","rank_24h_ago":"30","mentions_24h_ago":"76"},{"rank":8,"ticker":"ALGO.X","name":"Algorand","mentions":"203","upvotes":"742","rank_24h_ago":"4","mentions_24h_ago":"158"},{"rank":9,"ticker":"CKB.X","name":"Nervos Network","mentions":"165","upvotes":"852","rank_24h_ago":"10","mentions_24h_ago":"147"},{"rank":10,"ticker":"SOL.X","name":"Solana","mentions":"164","upvotes":"773","rank_24h_ago":"8","mentions_24h_ago":"152"},{"rank":11,"ticker":"ONE.X","name":"Harmony","mentions":"141","upvotes":"1019","rank_24h_ago":"11","mentions_24h_ago":"131"},{"rank":12,"ticker":"CRO.X","name":"Crypto.com Coin","mentions":"131","upvotes":"447","rank_24h_ago":"5","mentions_24h_ago":"211"},{"rank":13,"ticker":"SHIB.X","name":"SHIBA INU","mentions":"114","upvotes":"2148","rank_24h_ago":"9","mentions_24h_ago":"133"},{"rank":14,"ticker":"BNB.X","name":"Binance Coin","mentions":"110","upvotes":"6024","rank_24h_ago":"13","mentions_24h_ago":"97"},{"rank":15,"ticker":"APY.X","name":"APY.Finance","mentions":"101","upvotes":"260","rank_24h_ago":"14","mentions_24h_ago":"109"},{"rank":16,"ticker":"VET.X","name":"VeChain","mentions":"95","upvotes":"402","rank_24h_ago":"24","mentions_24h_ago":"71"},{"rank":17,"ticker":"XRP.X","name":"XRP","mentions":"85","upvotes":"170","rank_24h_ago":"19","mentions_24h_ago":"90"},{"rank":18,"ticker":"DONUT.X","name":"Donut","mentions":"83","upvotes":"89","rank_24h_ago":"767","mentions_24h_ago":null},{"rank":19,"ticker":"XLM.X","name":"Stellar","mentions":"80","upvotes":"249","rank_24h_ago":"15","mentions_24h_ago":"100"},{"rank":20,"ticker":"AVAX.X","name":"Avalanche","mentions":"76","upvotes":"235","rank_24h_ago":"35","mentions_24h_ago":"73"},{"rank":21,"ticker":"MATIC.X","name":"Polygon","mentions":"75","upvotes":"249","rank_24h_ago":"18","mentions_24h_ago":"80"},{"rank":22,"ticker":"DEX.X","name":"DEX","mentions":"73","upvotes":"2083","rank_24h_ago":"23","mentions_24h_ago":"74"},{"rank":23,"ticker":"USDC.X","name":"USD Coin","mentions":"70","upvotes":"241","rank_24h_ago":"6","mentions_24h_ago":"146"},{"rank":24,"ticker":"LTC.X","name":"Litecoin","mentions":"69","upvotes":"204","rank_24h_ago":"32","mentions_24h_ago":"52"},{"rank":25,"ticker":"BAT.X","name":"Basic Attention Token","mentions":"69","upvotes":"265","rank_24h_ago":"27","mentions_24h_ago":"60"},{"rank":26,"ticker":"USDT.X","name":"Tether","mentions":"68","upvotes":"2527","rank_24h_ago":"20","mentions_24h_ago":"88"},{"rank":27,"ticker":"DOGE.X","name":"Dogecoin","mentions":"68","upvotes":"3106","rank_24h_ago":"12","mentions_24h_ago":"101"},{"rank":28,"ticker":"FTM.X","name":"Fantom","mentions":"63","upvotes":"321","rank_24h_ago":"44","mentions_24h_ago":"39"},{"rank":29,"ticker":"ATOM.X","name":"Cosmos","mentions":"50","upvotes":"208","rank_24h_ago":"49","mentions_24h_ago":"24"},{"rank":30,"ticker":"LINK.X","name":"Chainlink","mentions":"46","upvotes":"220","rank_24h_ago":"28","mentions_24h_ago":"66"},{"rank":31,"ticker":"MANA.X","name":"Decentraland","mentions":"44","upvotes":"258","rank_24h_ago":"26","mentions_24h_ago":"76"},{"rank":32,"ticker":"BUSD.X","name":"Binance USD","mentions":"44","upvotes":"481","rank_24h_ago":"36","mentions_24h_ago":"39"},{"rank":33,"ticker":"DAO.X","name":"DAO Maker","mentions":"42","upvotes":"60","rank_24h_ago":"57","mentions_24h_ago":"22"},{"rank":34,"ticker":"ICP.X","name":"Internet Computer","mentions":"40","upvotes":"150","rank_24h_ago":"63","mentions_24h_ago":"22"},{"rank":35,"ticker":"XMR.X","name":"Monero","mentions":"38","upvotes":"189","rank_24h_ago":"17","mentions_24h_ago":"76"},{"rank":36,"ticker":"FB.X","name":"Facebook tokenized stock FTX","mentions":"36","upvotes":"117","rank_24h_ago":"83","mentions_24h_ago":"14"},{"rank":37,"ticker":"ATM.X","name":"Atletico De Madrid Fan Token","mentions":"32","upvotes":"81","rank_24h_ago":"16","mentions_24h_ago":"80"},{"rank":38,"ticker":"XTZ.X","name":"Tezos","mentions":"30","upvotes":"210","rank_24h_ago":"51","mentions_24h_ago":"31"},{"rank":39,"ticker":"AMP.X","name":"Amp","mentions":"29","upvotes":"48","rank_24h_ago":"50","mentions_24h_ago":"30"},{"rank":40,"ticker":"LN.X","name":"LINK","mentions":"27","upvotes":"69","rank_24h_ago":"66","mentions_24h_ago":"17"},{"rank":41,"ticker":"ID.X","name":"Everest","mentions":"27","upvotes":"55","rank_24h_ago":"70","mentions_24h_ago":"16"},{"rank":42,"ticker":"LUNA.X","name":"Terra","mentions":"25","upvotes":"232","rank_24h_ago":"39","mentions_24h_ago":"42"},{"rank":43,"ticker":"CDC.X","name":"Commerce Data Connection","mentions":"24","upvotes":"41","rank_24h_ago":"42","mentions_24h_ago":"42"},{"rank":44,"ticker":"YOU.X","name":"YOU COIN","mentions":"22","upvotes":"190","rank_24h_ago":"56","mentions_24h_ago":"28"},{"rank":45,"ticker":"GRT.X","name":"Global Rental Token","mentions":"21","upvotes":"46","rank_24h_ago":"65","mentions_24h_ago":"24"},{"rank":46,"ticker":"SAND.X","name":"The Sandbox","mentions":"21","upvotes":"188","rank_24h_ago":"55","mentions_24h_ago":"31"},{"rank":47,"ticker":"OPCT.X","name":"Opacity","mentions":"21","upvotes":"107","rank_24h_ago":"59","mentions_24h_ago":"27"},{"rank":48,"ticker":"ASA.X","name":"Asura Coin","mentions":"21","upvotes":"86","rank_24h_ago":"53","mentions_24h_ago":"18"},{"rank":49,"ticker":"VRA.X","name":"Verasity","mentions":"21","upvotes":"33","rank_24h_ago":"81","mentions_24h_ago":"10"},{"rank":50,"ticker":"UST.X","name":"TerraUSD","mentions":"21","upvotes":"65","rank_24h_ago":"31","mentions_24h_ago":"58"},{"rank":51,"ticker":"IT.X","name":"IDCM Token","mentions":"21","upvotes":"54","rank_24h_ago":"60","mentions_24h_ago":"22"},{"rank":52,"ticker":"AMC.X","name":"AMC Entertainment Holdings tokenized stock FTX","mentions":"20","upvotes":"108","rank_24h_ago":"21","mentions_24h_ago":"67"},{"rank":53,"ticker":"AMA.X","name":"AMATEN","mentions":"20","upvotes":"3896","rank_24h_ago":"46","mentions_24h_ago":"24"},{"rank":54,"ticker":"CAKE.X","name":"PancakeSwap","mentions":"20","upvotes":"2118","rank_24h_ago":"129","mentions_24h_ago":"7"},{"rank":55,"ticker":"NANO.X","name":"Nano","mentions":"20","upvotes":"84","rank_24h_ago":"33","mentions_24h_ago":"53"},{"rank":56,"ticker":"AC.X","name":"ACoconut","mentions":"19","upvotes":"20","rank_24h_ago":"77","mentions_24h_ago":"11"},{"rank":57,"ticker":"GET.X","name":"GET Protocol","mentions":"18","upvotes":"60","rank_24h_ago":"160","mentions_24h_ago":"7"},{"rank":58,"ticker":"FTX.X","name":"FintruX Network","mentions":"18","upvotes":"30","rank_24h_ago":"45","mentions_24h_ago":"34"},{"rank":59,"ticker":"APR.X","name":"APR Coin","mentions":"18","upvotes":"64","rank_24h_ago":"52","mentions_24h_ago":"27"},{"rank":60,"ticker":"ANKR.X","name":"Ankr","mentions":"18","upvotes":"63","rank_24h_ago":"128","mentions_24h_ago":"3"},{"rank":61,"ticker":"DAI.X","name":"Dai","mentions":"18","upvotes":"32","rank_24h_ago":"43","mentions_24h_ago":"32"},{"rank":62,"ticker":"CHZ.X","name":"Chiliz","mentions":"17","upvotes":"49","rank_24h_ago":"91","mentions_24h_ago":"10"},{"rank":63,"ticker":"NOW.X","name":"NOW Token","mentions":"16","upvotes":"1409","rank_24h_ago":"89","mentions_24h_ago":"10"},{"rank":64,"ticker":"ETC.X","name":"Ethereum Classic","mentions":"16","upvotes":"24","rank_24h_ago":"64","mentions_24h_ago":"19"},{"rank":65,"ticker":"CPU.X","name":"CPUchain","mentions":"15","upvotes":"32","rank_24h_ago":"109","mentions_24h_ago":"10"},{"rank":66,"ticker":"ERG.X","name":"Ergo","mentions":"15","upvotes":"26","rank_24h_ago":"78","mentions_24h_ago":"12"},{"rank":67,"ticker":"GBTC.X","name":"Grayscale Bitcoin Trust tokenized stock FTX","mentions":"15","upvotes":"29","rank_24h_ago":"174","mentions_24h_ago":"8"},{"rank":68,"ticker":"ANY.X","name":"Anyswap","mentions":"15","upvotes":"22","rank_24h_ago":"119","mentions_24h_ago":"4"},{"rank":69,"ticker":"HBAR.X","name":"Hedera Hashgraph","mentions":"15","upvotes":"55","rank_24h_ago":"71","mentions_24h_ago":"18"},{"rank":70,"ticker":"OG.X","name":"OG Fan Token","mentions":"15","upvotes":"84","rank_24h_ago":"73","mentions_24h_ago":"14"},{"rank":71,"ticker":"LOT.X","name":"Lukki Operating Token","mentions":"15","upvotes":"68","rank_24h_ago":"102","mentions_24h_ago":"14"},{"rank":72,"ticker":"ALT.X","name":"Alt.Estate token","mentions":"15","upvotes":"36","rank_24h_ago":"108","mentions_24h_ago":"7"},{"rank":73,"ticker":"AR.X","name":"Arweave","mentions":"14","upvotes":"20","rank_24h_ago":"75","mentions_24h_ago":"16"},{"rank":74,"ticker":"IRA.X","name":"Diligence","mentions":"14","upvotes":"33","rank_24h_ago":"29","mentions_24h_ago":"42"},{"rank":75,"ticker":"OMG.X","name":"OMG Network","mentions":"14","upvotes":"33","rank_24h_ago":"54","mentions_24h_ago":"30"},{"rank":76,"ticker":"OLY.X","name":"Olyseum","mentions":"13","upvotes":"14","rank_24h_ago":"0","mentions_24h_ago":null},{"rank":77,"ticker":"META.X","name":"Metadium","mentions":"13","upvotes":"27","rank_24h_ago":"217","mentions_24h_ago":"4"},{"rank":78,"ticker":"HNT.X","name":"Helium","mentions":"13","upvotes":"26","rank_24h_ago":"67","mentions_24h_ago":"10"},{"rank":79,"ticker":"MTV.X","name":"MultiVAC","mentions":"13","upvotes":"39","rank_24h_ago":"122","mentions_24h_ago":"7"},{"rank":80,"ticker":"TX.X","name":"TransferCoin","mentions":"13","upvotes":"25","rank_24h_ago":"164","mentions_24h_ago":"4"},{"rank":81,"ticker":"ENJ.X","name":"Enjin Coin","mentions":"13","upvotes":"272","rank_24h_ago":"68","mentions_24h_ago":"16"},{"rank":82,"ticker":"GO.X","name":"GoChain","mentions":"13","upvotes":"857","rank_24h_ago":"118","mentions_24h_ago":"9"},{"rank":83,"ticker":"SYS.X","name":"Syscoin","mentions":"12","upvotes":"15","rank_24h_ago":"87","mentions_24h_ago":"11"},{"rank":84,"ticker":"JASMY.X","name":"Jasmy","mentions":"12","upvotes":"42","rank_24h_ago":"175","mentions_24h_ago":"5"},{"rank":85,"ticker":"TRAC.X","name":"OriginTrail","mentions":"12","upvotes":"54","rank_24h_ago":"86","mentions_24h_ago":"12"},{"rank":86,"ticker":"TIME.X","name":"Chrono.tech","mentions":"11","upvotes":"19","rank_24h_ago":"74","mentions_24h_ago":"10"},{"rank":87,"ticker":"KDA.X","name":"Kadena","mentions":"11","upvotes":"42","rank_24h_ago":"61","mentions_24h_ago":"26"},{"rank":88,"ticker":"QNT.X","name":"Quant","mentions":"11","upvotes":"20","rank_24h_ago":"80","mentions_24h_ago":"13"},{"rank":89,"ticker":"ACH.X","name":"Alchemy Pay","mentions":"11","upvotes":"16","rank_24h_ago":"62","mentions_24h_ago":"23"},{"rank":90,"ticker":"BCH.X","name":"Bitcoin Cash","mentions":"11","upvotes":"30","rank_24h_ago":"41","mentions_24h_ago":"29"},{"rank":91,"ticker":"UFO.X","name":"Unknown Fair Object","mentions":"10","upvotes":"16","rank_24h_ago":"171","mentions_24h_ago":"2"},{"rank":92,"ticker":"SCRT.X","name":"Secret","mentions":"10","upvotes":"16","rank_24h_ago":"92","mentions_24h_ago":"10"},{"rank":93,"ticker":"AXS.X","name":"Axie Infinity","mentions":"10","upvotes":"37","rank_24h_ago":"93","mentions_24h_ago":"10"},{"rank":94,"ticker":"AMM.X","name":"MicroMoney","mentions":"10","upvotes":"85","rank_24h_ago":"131","mentions_24h_ago":"6"},{"rank":95,"ticker":"YT.X","name":"Cherry Token","mentions":"10","upvotes":"27","rank_24h_ago":"84","mentions_24h_ago":"5"},{"rank":96,"ticker":"COS.X","name":"Contentos","mentions":"9","upvotes":"20","rank_24h_ago":"116","mentions_24h_ago":"4"},{"rank":97,"ticker":"AAA.X","name":"Abulaba","mentions":"9","upvotes":"116","rank_24h_ago":"111","mentions_24h_ago":"6"},{"rank":98,"ticker":"LOVE.X","name":"Love Coin","mentions":"9","upvotes":"14","rank_24h_ago":"113","mentions_24h_ago":"7"},{"rank":99,"ticker":"CNN.X","name":"Content Neutrality Network","mentions":"9","upvotes":"46","rank_24h_ago":"107","mentions_24h_ago":"7"},{"rank":100,"ticker":"DAG.X","name":"Constellation","mentions":"9","upvotes":"14","rank_24h_ago":"185","mentions_24h_ago":"4"}]}