{"count":1324,"pages":14,"current_page":1,"results":[{"rank":1,"ticker":"TSLA","name":"Tesla","mentions":"204","upvotes":"31494","rank_24h_ago":"2","mentions_24h_ago":"394"},{"rank":2,"ticker":"GME","name":"GameStop","mentions":"194","upvotes":"926","rank_24h_ago":"3","mentions_24h_ago":"241"},{"rank":3,"ticker":"PROG","name":"Progenity","mentions":"190","upvotes":"1567","rank_24h_ago":"10","mentions_24h_ago":"131"},{"rank":4,"ticker":"SPY","name":"SPDR S&amp;P 500 ETF Trust","mentions":"173","upvotes":"620","rank_24h_ago":"1","mentions_24h_ago":"641"},{"rank":5,"ticker":"AMC","name":"AMC Entertainment","mentions":"168","upvotes":"1837","rank_24h_ago":"9","mentions_24h_ago":"153"},{"rank":6,"ticker":"NVDA","name":"NVIDIA","mentions":"103","upvotes":"721","rank_24h_ago":"4","mentions_24h_ago":"237"},{"rank":7,"ticker":"AMD","name":"AMD","mentions":"75","upvotes":"945","rank_24h_ago":"6","mentions_24h_ago":"179"},{"rank":8,"ticker":"PLTR","name":"Palantir","mentions":"73","upvotes":"480","rank_24h_ago":"11","mentions_24h_ago":"124"},{"rank":9,"ticker":"WISH","name":"ContextLogic (wish.com)","mentions":"61","upvotes":"556","rank_24h_ago":"14","mentions_24h_ago":"88"},{"rank":10,"ticker":"PE","name":"Parsley Energy","mentions":"57","upvotes":"373","rank_24h_ago":"34","mentions_24h_ago":"51"},{"rank":11,"ticker":"RIVN","name":"Rivian","mentions":"51","upvotes":"181","rank_24h_ago":"13","mentions_24h_ago":"113"},{"rank":12,"ticker":"FB","name":"Meta (Facebook)","mentions":"51","upvotes":"119","rank_24h_ago":"20","mentions_24h_ago":"87"},{"rank":13,"ticker":"SNDL","name":"Sundial Growers","mentions":"51","upvotes":"175","rank_24h_ago":"5","mentions_24h_ago":"187"},{"rank":14,"ticker":"ICE","name":"Intercontinental Exchange","mentions":"50","upvotes":"108","rank_24h_ago":"58","mentions_24h_ago":"28"},{"rank":15,"ticker":"GM","name":"General Motors","mentions":"45","upvotes":"176","rank_24h_ago":"21","mentions_24h_ago":"65"},{"rank":16,"ticker":"LCID","name":"Lucid Motors","mentions":"41","upvotes":"131","rank_24h_ago":"18","mentions_24h_ago":"93"},{"rank":17,"ticker":"AI","name":"Arlington Asset Investment","mentions":"40","upvotes":"59","rank_24h_ago":"46","mentions_24h_ago":"34"},{"rank":18,"ticker":"BGFV","name":"Big 5 Sporting Goods","mentions":"39","upvotes":"215","rank_24h_ago":"12","mentions_24h_ago":"79"},{"rank":19,"ticker":"CC","name":"Chemours","mentions":"38","upvotes":"79","rank_24h_ago":"28","mentions_24h_ago":"60"},{"rank":20,"ticker":"VTI","name":"Vanguard Total Stock Market ETF","mentions":"37","upvotes":"128","rank_24h_ago":"30","mentions_24h_ago":"36"},{"rank":21,"ticker":"MSFT","name":"Microsoft","mentions":"36","upvotes":"298","rank_24h_ago":"25","mentions_24h_ago":"48"},{"rank":22,"ticker":"NKLA","name":"Nikola","mentions":"35","upvotes":"717","rank_24h_ago":"72","mentions_24h_ago":"20"},{"rank":23,"ticker":"YOU","name":"CLEAR Secure","mentions":"34","upvotes":"89","rank_24h_ago":"38","mentions_24h_ago":"41"},{"rank":24,"ticker":"AR","name":"Antero Resources","mentions":"34","upvotes":"41","rank_24h_ago":"60","mentions_24h_ago":"29"},{"rank":25,"ticker":"DWAC","name":"Digital World Acquisition","mentions":"31","upvotes":"119","rank_24h_ago":"27","mentions_24h_ago":"61"},{"rank":26,"ticker":"PYPL","name":"PayPal","mentions":"30","upvotes":"180","rank_24h_ago":"8","mentions_24h_ago":"183"},{"rank":27,"ticker":"ATER","name":"Aterian","mentions":"29","upvotes":"214","rank_24h_ago":"47","mentions_24h_ago":"35"},{"rank":28,"ticker":"BABA","name":"Alibaba","mentions":"29","upvotes":"98","rank_24h_ago":"35","mentions_24h_ago":"41"},{"rank":29,"ticker":"AGC","name":"Altimeter Growth","mentions":"28","upvotes":"153","rank_24h_ago":"16","mentions_24h_ago":"81"},{"rank":30,"ticker":"AAPL","name":"Apple","mentions":"27","upvotes":"161","rank_24h_ago":"24","mentions_24h_ago":"56"},{"rank":31,"ticker":"IT","name":"Gartner","mentions":"26","upvotes":"207","rank_24h_ago":"71","mentions_24h_ago":"18"},{"rank":32,"ticker":"BB","name":"BlackBerry","mentions":"26","upvotes":"243","rank_24h_ago":"40","mentions_24h_ago":"32"},{"rank":33,"ticker":"TLRY","name":"Tilray","mentions":"25","upvotes":"74","rank_24h_ago":"15","mentions_24h_ago":"140"},{"rank":34,"ticker":"DTE","name":"DTE Energy","mentions":"25","upvotes":"138","rank_24h_ago":"22","mentions_24h_ago":"77"},{"rank":35,"ticker":"BKKT","name":"Bakkt Holdings","mentions":"24","upvotes":"133","rank_24h_ago":"91","mentions_24h_ago":"16"},{"rank":36,"ticker":"TD","name":"Toronto Dominion Bank","mentions":"23","upvotes":"44","rank_24h_ago":"50","mentions_24h_ago":"31"},{"rank":37,"ticker":"QQQ","name":"Invesco QQQ ETF","mentions":"23","upvotes":"93","rank_24h_ago":"31","mentions_24h_ago":"36"},{"rank":38,"ticker":"IS","name":"IronSource","mentions":"22","upvotes":"68","rank_24h_ago":"54","mentions_24h_ago":"27"},{"rank":39,"ticker":"BL","name":"BlackLine","mentions":"22","upvotes":"41","rank_24h_ago":"81","mentions_24h_ago":"21"},{"rank":40,"ticker":"CPA","name":"Copa Holdings","mentions":"21","upvotes":"336","rank_24h_ago":"225","mentions_24h_ago":"3"},{"rank":41,"ticker":"PTON","name":"Peloton","mentions":"21","upvotes":"104","rank_24h_ago":"59","mentions_24h_ago":"32"},{"rank":42,"ticker":"DASH","name":"DoorDash","mentions":"20","upvotes":"2260","rank_24h_ago":"51","mentions_24h_ago":"27"},{"rank":43,"ticker":"AMZN","name":"Amazon","mentions":"20","upvotes":"114","rank_24h_ago":"32","mentions_24h_ago":"44"},{"rank":44,"ticker":"RIOT","name":"Riot Blockchain","mentions":"20","upvotes":"82","rank_24h_ago":"37","mentions_24h_ago":"44"},{"rank":45,"ticker":"DIS","name":"Walt Disney","mentions":"17","upvotes":"36","rank_24h_ago":"17","mentions_24h_ago":"108"},{"rank":46,"ticker":"SDC","name":"SmileDirectClub","mentions":"16","upvotes":"244","rank_24h_ago":"39","mentions_24h_ago":"38"},{"rank":47,"ticker":"PSFE","name":"Paysafe","mentions":"16","upvotes":"41","rank_24h_ago":"7","mentions_24h_ago":"153"},{"rank":48,"ticker":"TRUE","name":"TrueCar","mentions":"15","upvotes":"61","rank_24h_ago":"1158","mentions_24h_ago":null},{"rank":49,"ticker":"VIAC","name":"ViacomCBS","mentions":"15","upvotes":"105","rank_24h_ago":"169","mentions_24h_ago":"7"},{"rank":50,"ticker":"SQ","name":"Square","mentions":"15","upvotes":"47","rank_24h_ago":"117","mentions_24h_ago":"14"},{"rank":51,"ticker":"NIO","name":"NIO","mentions":"15","upvotes":"74","rank_24h_ago":"48","mentions_24h_ago":"31"},{"rank":52,"ticker":"ZIM","name":"ZIM Integrated Shipping Services","mentions":"14","upvotes":"60","rank_24h_ago":"189","mentions_24h_ago":"5"},{"rank":53,"ticker":"ASTS","name":"AST SpaceMobile","mentions":"14","upvotes":"44","rank_24h_ago":"104","mentions_24h_ago":"18"},{"rank":54,"ticker":"AA","name":"Alcoa","mentions":"14","upvotes":"87","rank_24h_ago":"226","mentions_24h_ago":"6"},{"rank":55,"ticker":"IBKR","name":"Interactive Brokers","mentions":"14","upvotes":"34","rank_24h_ago":"135","mentions_24h_ago":"8"},{"rank":56,"ticker":"RE","name":"Everest Re","mentions":"14","upvotes":"121","rank_24h_ago":"140","mentions_24h_ago":"7"},{"rank":57,"ticker":"ALL","name":"Allstate","mentions":"14","upvotes":"70","rank_24h_ago":"75","mentions_24h_ago":"18"},{"rank":58,"ticker":"IQ","name":"iQIYI","mentions":"14","upvotes":"316","rank_24h_ago":"102","mentions_24h_ago":"15"},{"rank":59,"ticker":"INTC","name":"Intel","mentions":"14","upvotes":"69","rank_24h_ago":"74","mentions_24h_ago":"15"},{"rank":60,"ticker":"OG","name":"Onion Global","mentions":"13","upvotes":"94","rank_24h_ago":"176","mentions_24h_ago":"7"},{"rank":61,"ticker":"SP","name":"SP Plus Corporation","mentions":"13","upvotes":"24","rank_24h_ago":"83","mentions_24h_ago":"16"},{"rank":62,"ticker":"PT","name":"Pintec Technology","mentions":"12","upvotes":"39","rank_24h_ago":"26","mentions_24h_ago":"47"},{"rank":63,"ticker":"BBIG","name":"Vinco Ventures","mentions":"12","upvotes":"47","rank_24h_ago":"49","mentions_24h_ago":"23"},{"rank":64,"ticker":"VT","name":"Vanguard Group, Inc. - Vanguard Total World Stock ETF","mentions":"12","upvotes":"39","rank_24h_ago":"147","mentions_24h_ago":"4"},{"rank":65,"ticker":"SOFI","name":"SoFi","mentions":"12","upvotes":"50","rank_24h_ago":"19","mentions_24h_ago":"79"},{"rank":66,"ticker":"VOO","name":"Vanguard S&amp;P 500 ETF","mentions":"12","upvotes":"45","rank_24h_ago":"44","mentions_24h_ago":"35"},{"rank":67,"ticker":"IONQ","name":"IonQ","mentions":"11","upvotes":"26","rank_24h_ago":"113","mentions_24h_ago":"18"},{"rank":68,"ticker":"UP","name":"Wheels Up","mentions":"11","upvotes":"57","rank_24h_ago":"132","mentions_24h_ago":"6"},{"rank":69,"ticker":"NET","name":"Cloudflare","mentions":"11","upvotes":"60","rank_24h_ago":"77","mentions_24h_ago":"17"},{"rank":70,"ticker":"UI","name":"Ubiquiti","mentions":"11","upvotes":"37","rank_24h_ago":"160","mentions_24h_ago":"9"},{"rank":71,"ticker":"MS","name":"Morgan Stanley","mentions":"11","upvotes":"97","rank_24h_ago":"116","mentions_24h_ago":"9"},{"rank":72,"ticker":"SPCE","name":"Virgin Galactic","mentions":"11","upvotes":"38","rank_24h_ago":"142","mentions_24h_ago":"9"},{"rank":73,"ticker":"TTCF","name":"Tattooed Chef","mentions":"10","upvotes":"44","rank_24h_ago":"121","mentions_24h_ago":"14"},{"rank":74,"ticker":"AM","name":"Antero Midstream","mentions":"10","upvotes":"35","rank_24h_ago":"68","mentions_24h_ago":"12"},{"rank":75,"ticker":"SE","name":"Sea (Garena)","mentions":"10","upvotes":"32","rank_24h_ago":"259","mentions_24h_ago":"3"},{"rank":76,"ticker":"MARA","name":"Marathon Digital Holdings","mentions":"9","upvotes":"43","rank_24h_ago":"85","mentions_24h_ago":"19"},{"rank":77,"ticker":"ABNB","name":"Airbnb","mentions":"9","upvotes":"67","rank_24h_ago":"89","mentions_24h_ago":"18"},{"rank":78,"ticker":"SO","name":"Southern Company","mentions":"9","upvotes":"63","rank_24h_ago":"139","mentions_24h_ago":"6"},{"rank":79,"ticker":"RKLB","name":"Rocket Lab USA","mentions":"8","upvotes":"74","rank_24h_ago":"174","mentions_24h_ago":"5"},{"rank":80,"ticker":"BODY","name":"The Beachbody Company","mentions":"8","upvotes":"36","rank_24h_ago":"94","mentions_24h_ago":"11"},{"rank":81,"ticker":"SHOP","name":"Shopify","mentions":"8","upvotes":"21","rank_24h_ago":"29","mentions_24h_ago":"73"},{"rank":82,"ticker":"DM","name":"Desktop Metal","mentions":"8","upvotes":"2","rank_24h_ago":"111","mentions_24h_ago":"10"},{"rank":83,"ticker":"ETH","name":"Ethan Allen","mentions":"8","upvotes":"33","rank_24h_ago":"354","mentions_24h_ago":"1"},{"rank":84,"ticker":"GE","name":"General Electric","mentions":"8","upvotes":"370","rank_24h_ago":"62","mentions_24h_ago":"26"},{"rank":85,"ticker":"GL","name":"Globe Life","mentions":"8","upvotes":"55","rank_24h_ago":"196","mentions_24h_ago":"6"},{"rank":86,"ticker":"WMT","name":"Walmart","mentions":"8","upvotes":"50","rank_24h_ago":"291","mentions_24h_ago":"3"},{"rank":87,"ticker":"PLUG","name":"Plug Power","mentions":"8","upvotes":"54","rank_24h_ago":"87","mentions_24h_ago":"15"},{"rank":88,"ticker":"AT","name":"Atlantic Power Corporation","mentions":"8","upvotes":"29","rank_24h_ago":"82","mentions_24h_ago":"19"},{"rank":89,"ticker":"CLOV","name":"Clover Health Investments","mentions":"8","upvotes":"32","rank_24h_ago":"53","mentions_24h_ago":"26"},{"rank":90,"ticker":"BTBT","name":"Bit Digital","mentions":"7","upvotes":"16","rank_24h_ago":"359","mentions_24h_ago":"4"},{"rank":91,"ticker":"HUT","name":"Hut 8 Mining","mentions":"7","upvotes":"27","rank_24h_ago":"70","mentions_24h_ago":"22"},{"rank":92,"ticker":"CFA","name":"Victory Portfolios II - VictoryShares US 500 Volatility Wtd ETF","mentions":"7","upvotes":"103","rank_24h_ago":"976","mentions_24h_ago":null},{"rank":93,"ticker":"CRTX","name":"Cortexyme","mentions":"7","upvotes":"21","rank_24h_ago":"80","mentions_24h_ago":"17"},{"rank":94,"ticker":"FUBO","name":"fuboTV","mentions":"7","upvotes":"22","rank_24h_ago":"41","mentions_24h_ago":"29"},{"rank":95,"ticker":"VXUS","name":"Vanguard Group, Inc. - Vanguard Total International Stock ETF","mentions":"7","upvotes":"4","rank_24h_ago":"954","mentions_24h_ago":"1"},{"rank":96,"ticker":"TGT","name":"Target","mentions":"7","upvotes":"19","rank_24h_ago":"179","mentions_24h_ago":"8"},{"rank":97,"ticker":"UPST","name":"Upstart","mentions":"7","upvotes":"13","rank_24h_ago":"57","mentions_24h_ago":"24"},{"rank":98,"ticker":"GOOG","name":"Alphabet (Google)","mentions":"7","upvotes":"19","rank_24h_ago":"239","mentions_24h_ago":"5"},{"rank":99,"ticker":"OI","name":"O-I Glass","mentions":"7","upvotes":"21","rank_24h_ago":"96","mentions_24h_ago":"14"},{"rank":100,"ticker":"HR","name":"Healthcare Realty","mentions":"7","upvotes":"19","rank_24h_ago":"223","mentions_24h_ago":"3"}]}