{"count":1317,"pages":14,"current_page":1,"results":[{"rank":1,"ticker":"GME","name":"GameStop","mentions":"200","upvotes":"955","rank_24h_ago":"3","mentions_24h_ago":"243"},{"rank":2,"ticker":"TSLA","name":"Tesla","mentions":"198","upvotes":"27074","rank_24h_ago":"2","mentions_24h_ago":"402"},{"rank":3,"ticker":"PROG","name":"Progenity","mentions":"191","upvotes":"1672","rank_24h_ago":"10","mentions_24h_ago":"139"},{"rank":4,"ticker":"SPY","name":"SPDR S&amp;P 500 ETF Trust","mentions":"177","upvotes":"768","rank_24h_ago":"1","mentions_24h_ago":"661"},{"rank":5,"ticker":"AMC","name":"AMC Entertainment","mentions":"162","upvotes":"1777","rank_24h_ago":"9","mentions_24h_ago":"159"},{"rank":6,"ticker":"NVDA","name":"NVIDIA","mentions":"100","upvotes":"700","rank_24h_ago":"5","mentions_24h_ago":"248"},{"rank":7,"ticker":"PLTR","name":"Palantir","mentions":"74","upvotes":"612","rank_24h_ago":"14","mentions_24h_ago":"121"},{"rank":8,"ticker":"AMD","name":"AMD","mentions":"72","upvotes":"863","rank_24h_ago":"6","mentions_24h_ago":"205"},{"rank":9,"ticker":"WISH","name":"ContextLogic (wish.com)","mentions":"65","upvotes":"536","rank_24h_ago":"12","mentions_24h_ago":"97"},{"rank":10,"ticker":"PE","name":"Parsley Energy","mentions":"55","upvotes":"366","rank_24h_ago":"38","mentions_24h_ago":"48"},{"rank":11,"ticker":"RIVN","name":"Rivian","mentions":"52","upvotes":"186","rank_24h_ago":"13","mentions_24h_ago":"115"},{"rank":12,"ticker":"FB","name":"Meta (Facebook)","mentions":"49","upvotes":"100","rank_24h_ago":"22","mentions_24h_ago":"85"},{"rank":13,"ticker":"SNDL","name":"Sundial Growers","mentions":"49","upvotes":"148","rank_24h_ago":"4","mentions_24h_ago":"216"},{"rank":14,"ticker":"LCID","name":"Lucid Motors","mentions":"45","upvotes":"145","rank_24h_ago":"19","mentions_24h_ago":"92"},{"rank":15,"ticker":"ICE","name":"Intercontinental Exchange","mentions":"45","upvotes":"90","rank_24h_ago":"60","mentions_24h_ago":"30"},{"rank":16,"ticker":"GM","name":"General Motors","mentions":"41","upvotes":"179","rank_24h_ago":"21","mentions_24h_ago":"73"},{"rank":17,"ticker":"AI","name":"Arlington Asset Investment","mentions":"41","upvotes":"55","rank_24h_ago":"36","mentions_24h_ago":"32"},{"rank":18,"ticker":"CC","name":"Chemours","mentions":"38","upvotes":"98","rank_24h_ago":"27","mentions_24h_ago":"63"},{"rank":19,"ticker":"BGFV","name":"Big 5 Sporting Goods","mentions":"37","upvotes":"181","rank_24h_ago":"11","mentions_24h_ago":"98"},{"rank":20,"ticker":"YOU","name":"CLEAR Secure","mentions":"37","upvotes":"91","rank_24h_ago":"35","mentions_24h_ago":"40"},{"rank":21,"ticker":"DWAC","name":"Digital World Acquisition","mentions":"34","upvotes":"129","rank_24h_ago":"28","mentions_24h_ago":"61"},{"rank":22,"ticker":"PYPL","name":"PayPal","mentions":"33","upvotes":"174","rank_24h_ago":"8","mentions_24h_ago":"182"},{"rank":23,"ticker":"AR","name":"Antero Resources","mentions":"33","upvotes":"43","rank_24h_ago":"55","mentions_24h_ago":"30"},{"rank":24,"ticker":"MSFT","name":"Microsoft","mentions":"32","upvotes":"274","rank_24h_ago":"25","mentions_24h_ago":"53"},{"rank":25,"ticker":"ATER","name":"Aterian","mentions":"31","upvotes":"173","rank_24h_ago":"41","mentions_24h_ago":"33"},{"rank":26,"ticker":"VTI","name":"Vanguard Total Stock Market ETF","mentions":"31","upvotes":"112","rank_24h_ago":"32","mentions_24h_ago":"41"},{"rank":27,"ticker":"NKLA","name":"Nikola","mentions":"31","upvotes":"642","rank_24h_ago":"72","mentions_24h_ago":"20"},{"rank":28,"ticker":"AGC","name":"Altimeter Growth","mentions":"30","upvotes":"147","rank_24h_ago":"15","mentions_24h_ago":"87"},{"rank":29,"ticker":"DTE","name":"DTE Energy","mentions":"30","upvotes":"201","rank_24h_ago":"23","mentions_24h_ago":"74"},{"rank":30,"ticker":"TLRY","name":"Tilray","mentions":"29","upvotes":"126","rank_24h_ago":"17","mentions_24h_ago":"133"},{"rank":31,"ticker":"AAPL","name":"Apple","mentions":"29","upvotes":"240","rank_24h_ago":"26","mentions_24h_ago":"60"},{"rank":32,"ticker":"TD","name":"Toronto Dominion Bank","mentions":"27","upvotes":"251","rank_24h_ago":"49","mentions_24h_ago":"32"},{"rank":33,"ticker":"IT","name":"Gartner","mentions":"26","upvotes":"199","rank_24h_ago":"66","mentions_24h_ago":"16"},{"rank":34,"ticker":"BKKT","name":"Bakkt Holdings","mentions":"25","upvotes":"130","rank_24h_ago":"88","mentions_24h_ago":"15"},{"rank":35,"ticker":"BABA","name":"Alibaba","mentions":"25","upvotes":"89","rank_24h_ago":"34","mentions_24h_ago":"39"},{"rank":36,"ticker":"QQQ","name":"Invesco QQQ ETF","mentions":"25","upvotes":"92","rank_24h_ago":"30","mentions_24h_ago":"37"},{"rank":37,"ticker":"PSFE","name":"Paysafe","mentions":"22","upvotes":"65","rank_24h_ago":"7","mentions_24h_ago":"161"},{"rank":38,"ticker":"IS","name":"IronSource","mentions":"21","upvotes":"59","rank_24h_ago":"52","mentions_24h_ago":"27"},{"rank":39,"ticker":"BL","name":"BlackLine","mentions":"21","upvotes":"45","rank_24h_ago":"80","mentions_24h_ago":"22"},{"rank":40,"ticker":"BB","name":"BlackBerry","mentions":"21","upvotes":"185","rank_24h_ago":"43","mentions_24h_ago":"33"},{"rank":41,"ticker":"PTON","name":"Peloton","mentions":"20","upvotes":"74","rank_24h_ago":"53","mentions_24h_ago":"33"},{"rank":42,"ticker":"CPA","name":"Copa Holdings","mentions":"19","upvotes":"312","rank_24h_ago":"207","mentions_24h_ago":"3"},{"rank":43,"ticker":"AMZN","name":"Amazon","mentions":"19","upvotes":"147","rank_24h_ago":"31","mentions_24h_ago":"45"},{"rank":44,"ticker":"RIOT","name":"Riot Blockchain","mentions":"19","upvotes":"78","rank_24h_ago":"67","mentions_24h_ago":"44"},{"rank":45,"ticker":"DASH","name":"DoorDash","mentions":"17","upvotes":"1630","rank_24h_ago":"54","mentions_24h_ago":"30"},{"rank":46,"ticker":"DIS","name":"Walt Disney","mentions":"17","upvotes":"39","rank_24h_ago":"16","mentions_24h_ago":"112"},{"rank":47,"ticker":"SQ","name":"Square","mentions":"17","upvotes":"51","rank_24h_ago":"89","mentions_24h_ago":"11"},{"rank":48,"ticker":"SDC","name":"SmileDirectClub","mentions":"16","upvotes":"236","rank_24h_ago":"39","mentions_24h_ago":"38"},{"rank":49,"ticker":"NIO","name":"NIO","mentions":"16","upvotes":"69","rank_24h_ago":"42","mentions_24h_ago":"30"},{"rank":50,"ticker":"TRUE","name":"TrueCar","mentions":"15","upvotes":"64","rank_24h_ago":"1153","mentions_24h_ago":"1"},{"rank":51,"ticker":"VIAC","name":"ViacomCBS","mentions":"15","upvotes":"95","rank_24h_ago":"239","mentions_24h_ago":"7"},{"rank":52,"ticker":"PT","name":"Pintec Technology","mentions":"14","upvotes":"40","rank_24h_ago":"24","mentions_24h_ago":"52"},{"rank":53,"ticker":"ASTS","name":"AST SpaceMobile","mentions":"14","upvotes":"55","rank_24h_ago":"109","mentions_24h_ago":"16"},{"rank":54,"ticker":"SOFI","name":"SoFi","mentions":"14","upvotes":"53","rank_24h_ago":"18","mentions_24h_ago":"82"},{"rank":55,"ticker":"VOO","name":"Vanguard S&amp;P 500 ETF","mentions":"14","upvotes":"76","rank_24h_ago":"45","mentions_24h_ago":"34"},{"rank":56,"ticker":"ALL","name":"Allstate","mentions":"14","upvotes":"73","rank_24h_ago":"78","mentions_24h_ago":"17"},{"rank":57,"ticker":"INTC","name":"Intel","mentions":"14","upvotes":"66","rank_24h_ago":"82","mentions_24h_ago":"15"},{"rank":58,"ticker":"OG","name":"Onion Global","mentions":"13","upvotes":"104","rank_24h_ago":"172","mentions_24h_ago":"7"},{"rank":59,"ticker":"IONQ","name":"IonQ","mentions":"13","upvotes":"119","rank_24h_ago":"123","mentions_24h_ago":"15"},{"rank":60,"ticker":"SHOP","name":"Shopify","mentions":"13","upvotes":"90","rank_24h_ago":"37","mentions_24h_ago":"67"},{"rank":61,"ticker":"BBIG","name":"Vinco Ventures","mentions":"13","upvotes":"49","rank_24h_ago":"51","mentions_24h_ago":"29"},{"rank":62,"ticker":"AA","name":"Alcoa","mentions":"12","upvotes":"93","rank_24h_ago":"208","mentions_24h_ago":"6"},{"rank":63,"ticker":"IBKR","name":"Interactive Brokers","mentions":"12","upvotes":"30","rank_24h_ago":"149","mentions_24h_ago":"8"},{"rank":64,"ticker":"IQ","name":"iQIYI","mentions":"12","upvotes":"244","rank_24h_ago":"94","mentions_24h_ago":"15"},{"rank":65,"ticker":"SP","name":"SP Plus Corporation","mentions":"12","upvotes":"22","rank_24h_ago":"76","mentions_24h_ago":"16"},{"rank":66,"ticker":"MARA","name":"Marathon Digital Holdings","mentions":"11","upvotes":"42","rank_24h_ago":"121","mentions_24h_ago":"18"},{"rank":67,"ticker":"UP","name":"Wheels Up","mentions":"11","upvotes":"54","rank_24h_ago":"136","mentions_24h_ago":"10"},{"rank":68,"ticker":"MS","name":"Morgan Stanley","mentions":"11","upvotes":"88","rank_24h_ago":"127","mentions_24h_ago":"9"},{"rank":69,"ticker":"SPCE","name":"Virgin Galactic","mentions":"11","upvotes":"36","rank_24h_ago":"138","mentions_24h_ago":"9"},{"rank":70,"ticker":"TTCF","name":"Tattooed Chef","mentions":"10","upvotes":"44","rank_24h_ago":"119","mentions_24h_ago":"14"},{"rank":71,"ticker":"VT","name":"Vanguard Group, Inc. - Vanguard Total World Stock ETF","mentions":"10","upvotes":"33","rank_24h_ago":"155","mentions_24h_ago":"7"},{"rank":72,"ticker":"UI","name":"Ubiquiti","mentions":"10","upvotes":"45","rank_24h_ago":"131","mentions_24h_ago":"8"},{"rank":73,"ticker":"RE","name":"Everest Re","mentions":"10","upvotes":"115","rank_24h_ago":"146","mentions_24h_ago":"7"},{"rank":74,"ticker":"DM","name":"Desktop Metal","mentions":"9","upvotes":"3","rank_24h_ago":"98","mentions_24h_ago":"10"},{"rank":75,"ticker":"MVST","name":"Microvast","mentions":"9","upvotes":"29","rank_24h_ago":"142","mentions_24h_ago":"8"},{"rank":76,"ticker":"GOOG","name":"Alphabet (Google)","mentions":"9","upvotes":"20","rank_24h_ago":"215","mentions_24h_ago":"2"},{"rank":77,"ticker":"NET","name":"Cloudflare","mentions":"9","upvotes":"52","rank_24h_ago":"90","mentions_24h_ago":"18"},{"rank":78,"ticker":"AM","name":"Antero Midstream","mentions":"9","upvotes":"27","rank_24h_ago":"69","mentions_24h_ago":"15"},{"rank":79,"ticker":"TQQQ","name":"ProShares Trust - ProShares UltraPro QQQ","mentions":"9","upvotes":"28","rank_24h_ago":"116","mentions_24h_ago":"11"},{"rank":80,"ticker":"NAV","name":"Navistar","mentions":"9","upvotes":"25","rank_24h_ago":"50","mentions_24h_ago":"32"},{"rank":81,"ticker":"RKLB","name":"Rocket Lab USA","mentions":"8","upvotes":"72","rank_24h_ago":"170","mentions_24h_ago":"5"},{"rank":82,"ticker":"BODY","name":"The Beachbody Company","mentions":"8","upvotes":"37","rank_24h_ago":"97","mentions_24h_ago":"12"},{"rank":83,"ticker":"CRTX","name":"Cortexyme","mentions":"8","upvotes":"32","rank_24h_ago":"79","mentions_24h_ago":"17"},{"rank":84,"ticker":"ABNB","name":"Airbnb","mentions":"8","upvotes":"61","rank_24h_ago":"103","mentions_24h_ago":"18"},{"rank":85,"ticker":"ETH","name":"Ethan Allen","mentions":"8","upvotes":"33","rank_24h_ago":"354","mentions_24h_ago":"1"},{"rank":86,"ticker":"GE","name":"General Electric","mentions":"8","upvotes":"348","rank_24h_ago":"59","mentions_24h_ago":"24"},{"rank":87,"ticker":"OI","name":"O-I Glass","mentions":"8","upvotes":"24","rank_24h_ago":"115","mentions_24h_ago":"14"},{"rank":88,"ticker":"WMT","name":"Walmart","mentions":"8","upvotes":"49","rank_24h_ago":"291","mentions_24h_ago":"3"},{"rank":89,"ticker":"PLUG","name":"Plug Power","mentions":"8","upvotes":"33","rank_24h_ago":"84","mentions_24h_ago":"15"},{"rank":90,"ticker":"SE","name":"Sea (Garena)","mentions":"8","upvotes":"28","rank_24h_ago":"266","mentions_24h_ago":"3"},{"rank":91,"ticker":"CFA","name":"Victory Portfolios II - VictoryShares US 500 Volatility Wtd ETF","mentions":"7","upvotes":"88","rank_24h_ago":"970","mentions_24h_ago":null},{"rank":92,"ticker":"ZIM","name":"ZIM Integrated Shipping Services","mentions":"7","upvotes":"42","rank_24h_ago":"188","mentions_24h_ago":"5"},{"rank":93,"ticker":"FUBO","name":"fuboTV","mentions":"7","upvotes":"21","rank_24h_ago":"46","mentions_24h_ago":"37"},{"rank":94,"ticker":"UPST","name":"Upstart","mentions":"7","upvotes":"12","rank_24h_ago":"56","mentions_24h_ago":"27"},{"rank":95,"ticker":"ZM","name":"Zoom","mentions":"7","upvotes":"11","rank_24h_ago":"61","mentions_24h_ago":"23"},{"rank":96,"ticker":"GL","name":"Globe Life","mentions":"7","upvotes":"44","rank_24h_ago":"197","mentions_24h_ago":"6"},{"rank":97,"ticker":"HR","name":"Healthcare Realty","mentions":"7","upvotes":"18","rank_24h_ago":"202","mentions_24h_ago":"3"},{"rank":98,"ticker":"SNAP","name":"Snap","mentions":"7","upvotes":"19","rank_24h_ago":"68","mentions_24h_ago":"22"},{"rank":99,"ticker":"AT","name":"Atlantic Power Corporation","mentions":"7","upvotes":"27","rank_24h_ago":"86","mentions_24h_ago":"19"},{"rank":100,"ticker":"CLOV","name":"Clover Health Investments","mentions":"7","upvotes":"29","rank_24h_ago":"47","mentions_24h_ago":"29"}]}