{"count":942,"pages":10,"current_page":1,"results":[{"rank":1,"ticker":"BTC.X","name":"Bitcoin","mentions":"1813","upvotes":"13274","rank_24h_ago":"1","mentions_24h_ago":"1604"},{"rank":2,"ticker":"ETH.X","name":"Ethereum","mentions":"1485","upvotes":"13334","rank_24h_ago":"2","mentions_24h_ago":"1389"},{"rank":3,"ticker":"ADA.X","name":"Cardano","mentions":"451","upvotes":"3649","rank_24h_ago":"5","mentions_24h_ago":"296"},{"rank":4,"ticker":"CRO.X","name":"Crypto.com Coin","mentions":"198","upvotes":"568","rank_24h_ago":"17","mentions_24h_ago":"88"},{"rank":5,"ticker":"ALGO.X","name":"Algorand","mentions":"178","upvotes":"499","rank_24h_ago":"4","mentions_24h_ago":"396"},{"rank":6,"ticker":"USDC.X","name":"USD Coin","mentions":"155","upvotes":"582","rank_24h_ago":"13","mentions_24h_ago":"109"},{"rank":7,"ticker":"CKB.X","name":"Nervos Network","mentions":"150","upvotes":"458","rank_24h_ago":"8","mentions_24h_ago":"129"},{"rank":8,"ticker":"SOL.X","name":"Solana","mentions":"150","upvotes":"357","rank_24h_ago":"12","mentions_24h_ago":"131"},{"rank":9,"ticker":"SHIB.X","name":"SHIBA INU","mentions":"144","upvotes":"2823","rank_24h_ago":"7","mentions_24h_ago":"158"},{"rank":10,"ticker":"LRC.X","name":"Loopring","mentions":"143","upvotes":"1070","rank_24h_ago":"44","mentions_24h_ago":"23"},{"rank":11,"ticker":"DOT.X","name":"Polkadot","mentions":"142","upvotes":"359","rank_24h_ago":"6","mentions_24h_ago":"233"},{"rank":12,"ticker":"ONE.X","name":"Harmony","mentions":"137","upvotes":"869","rank_24h_ago":"25","mentions_24h_ago":"84"},{"rank":13,"ticker":"APY.X","name":"APY.Finance","mentions":"103","upvotes":"939","rank_24h_ago":"9","mentions_24h_ago":"130"},{"rank":14,"ticker":"BNB.X","name":"Binance Coin","mentions":"103","upvotes":"2978","rank_24h_ago":"10","mentions_24h_ago":"136"},{"rank":15,"ticker":"DOGE.X","name":"Dogecoin","mentions":"99","upvotes":"3626","rank_24h_ago":"23","mentions_24h_ago":"79"},{"rank":16,"ticker":"XLM.X","name":"Stellar","mentions":"95","upvotes":"311","rank_24h_ago":"11","mentions_24h_ago":"148"},{"rank":17,"ticker":"ATM.X","name":"Atletico De Madrid Fan Token","mentions":"91","upvotes":"1052","rank_24h_ago":"50","mentions_24h_ago":"39"},{"rank":18,"ticker":"XMR.X","name":"Monero","mentions":"90","upvotes":"523","rank_24h_ago":"29","mentions_24h_ago":"49"},{"rank":19,"ticker":"MATIC.X","name":"Polygon","mentions":"88","upvotes":"189","rank_24h_ago":"19","mentions_24h_ago":"87"},{"rank":20,"ticker":"XRP.X","name":"XRP","mentions":"88","upvotes":"830","rank_24h_ago":"21","mentions_24h_ago":"90"},{"rank":21,"ticker":"USDT.X","name":"Tether","mentions":"84","upvotes":"713","rank_24h_ago":"22","mentions_24h_ago":"89"},{"rank":22,"ticker":"LTO.X","name":"LTO Network","mentions":"76","upvotes":"194","rank_24h_ago":"3","mentions_24h_ago":"355"},{"rank":23,"ticker":"AMC.X","name":"AMC Entertainment Holdings tokenized stock FTX","mentions":"74","upvotes":"941","rank_24h_ago":"16","mentions_24h_ago":"127"},{"rank":24,"ticker":"MANA.X","name":"Decentraland","mentions":"70","upvotes":"265","rank_24h_ago":"24","mentions_24h_ago":"81"},{"rank":25,"ticker":"DEX.X","name":"DEX","mentions":"70","upvotes":"3410","rank_24h_ago":"20","mentions_24h_ago":"81"},{"rank":26,"ticker":"VET.X","name":"VeChain","mentions":"70","upvotes":"188","rank_24h_ago":"15","mentions_24h_ago":"114"},{"rank":27,"ticker":"GME.X","name":"GameStop tokenized stock FTX","mentions":"69","upvotes":"232","rank_24h_ago":"33","mentions_24h_ago":"40"},{"rank":28,"ticker":"LINK.X","name":"Chainlink","mentions":"63","upvotes":"210","rank_24h_ago":"26","mentions_24h_ago":"80"},{"rank":29,"ticker":"BAT.X","name":"Basic Attention Token","mentions":"61","upvotes":"165","rank_24h_ago":"18","mentions_24h_ago":"96"},{"rank":30,"ticker":"IRA.X","name":"Diligence","mentions":"57","upvotes":"194","rank_24h_ago":"38","mentions_24h_ago":"34"},{"rank":31,"ticker":"UST.X","name":"TerraUSD","mentions":"55","upvotes":"100","rank_24h_ago":"85","mentions_24h_ago":"15"},{"rank":32,"ticker":"AVAX.X","name":"Avalanche","mentions":"53","upvotes":"134","rank_24h_ago":"43","mentions_24h_ago":"29"},{"rank":33,"ticker":"NANO.X","name":"Nano","mentions":"51","upvotes":"747","rank_24h_ago":"55","mentions_24h_ago":"34"},{"rank":34,"ticker":"LTC.X","name":"Litecoin","mentions":"50","upvotes":"125","rank_24h_ago":"28","mentions_24h_ago":"65"},{"rank":35,"ticker":"MLK.X","name":"MiL.k","mentions":"47","upvotes":"107","rank_24h_ago":"417","mentions_24h_ago":"2"},{"rank":36,"ticker":"LUNA.X","name":"Terra","mentions":"45","upvotes":"111","rank_24h_ago":"74","mentions_24h_ago":"17"},{"rank":37,"ticker":"FAST.X","name":"FastSwap","mentions":"41","upvotes":"40","rank_24h_ago":"806","mentions_24h_ago":"1"},{"rank":38,"ticker":"CDC.X","name":"Commerce Data Connection","mentions":"40","upvotes":"214","rank_24h_ago":"64","mentions_24h_ago":"22"},{"rank":39,"ticker":"SUPER.X","name":"SuperFarm","mentions":"40","upvotes":"40","rank_24h_ago":"934","mentions_24h_ago":"1"},{"rank":40,"ticker":"COMBO.X","name":"Furucombo","mentions":"39","upvotes":"39","rank_24h_ago":"0","mentions_24h_ago":null},{"rank":41,"ticker":"FTM.X","name":"Fantom","mentions":"37","upvotes":"277","rank_24h_ago":"34","mentions_24h_ago":"46"},{"rank":42,"ticker":"BUSD.X","name":"Binance USD","mentions":"37","upvotes":"588","rank_24h_ago":"42","mentions_24h_ago":"34"},{"rank":43,"ticker":"XNO.X","name":"Xeno Token","mentions":"36","upvotes":"868","rank_24h_ago":"0","mentions_24h_ago":null},{"rank":44,"ticker":"FTX.X","name":"FintruX Network","mentions":"35","upvotes":"57","rank_24h_ago":"47","mentions_24h_ago":"28"},{"rank":45,"ticker":"DAI.X","name":"Dai","mentions":"35","upvotes":"64","rank_24h_ago":"60","mentions_24h_ago":"19"},{"rank":46,"ticker":"MM.X","name":"MM Token","mentions":"34","upvotes":"76","rank_24h_ago":"259","mentions_24h_ago":"3"},{"rank":47,"ticker":"BCH.X","name":"Bitcoin Cash","mentions":"33","upvotes":"116","rank_24h_ago":"40","mentions_24h_ago":"32"},{"rank":48,"ticker":"AMP.X","name":"Amp","mentions":"31","upvotes":"73","rank_24h_ago":"27","mentions_24h_ago":"54"},{"rank":49,"ticker":"XTZ.X","name":"Tezos","mentions":"31","upvotes":"162","rank_24h_ago":"41","mentions_24h_ago":"38"},{"rank":50,"ticker":"APR.X","name":"APR Coin","mentions":"30","upvotes":"110","rank_24h_ago":"57","mentions_24h_ago":"26"},{"rank":51,"ticker":"AMA.X","name":"AMATEN","mentions":"29","upvotes":"2481","rank_24h_ago":"35","mentions_24h_ago":"42"},{"rank":52,"ticker":"SAND.X","name":"The Sandbox","mentions":"28","upvotes":"64","rank_24h_ago":"58","mentions_24h_ago":"21"},{"rank":53,"ticker":"OPCT.X","name":"Opacity","mentions":"28","upvotes":"71","rank_24h_ago":"66","mentions_24h_ago":"16"},{"rank":54,"ticker":"YOU.X","name":"YOU COIN","mentions":"28","upvotes":"156","rank_24h_ago":"37","mentions_24h_ago":"33"},{"rank":55,"ticker":"OMG.X","name":"OMG Network","mentions":"28","upvotes":"41","rank_24h_ago":"14","mentions_24h_ago":"114"},{"rank":56,"ticker":"ATOM.X","name":"Cosmos","mentions":"27","upvotes":"58","rank_24h_ago":"31","mentions_24h_ago":"40"},{"rank":57,"ticker":"DAO.X","name":"DAO Maker","mentions":"26","upvotes":"53","rank_24h_ago":"30","mentions_24h_ago":"51"},{"rank":58,"ticker":"GRT.X","name":"Global Rental Token","mentions":"24","upvotes":"51","rank_24h_ago":"63","mentions_24h_ago":"20"},{"rank":59,"ticker":"IT.X","name":"IDCM Token","mentions":"24","upvotes":"53","rank_24h_ago":"52","mentions_24h_ago":"32"},{"rank":60,"ticker":"IOTX.X","name":"IoTeX","mentions":"23","upvotes":"77","rank_24h_ago":"187","mentions_24h_ago":"3"},{"rank":61,"ticker":"KDA.X","name":"Kadena","mentions":"23","upvotes":"40","rank_24h_ago":"62","mentions_24h_ago":"19"},{"rank":62,"ticker":"ACH.X","name":"Alchemy Pay","mentions":"23","upvotes":"75","rank_24h_ago":"92","mentions_24h_ago":"9"},{"rank":63,"ticker":"ASA.X","name":"Asura Coin","mentions":"21","upvotes":"38","rank_24h_ago":"48","mentions_24h_ago":"36"},{"rank":64,"ticker":"ICP.X","name":"Internet Computer","mentions":"21","upvotes":"72","rank_24h_ago":"53","mentions_24h_ago":"31"},{"rank":65,"ticker":"LN.X","name":"LINK","mentions":"20","upvotes":"105","rank_24h_ago":"96","mentions_24h_ago":"13"},{"rank":66,"ticker":"ETC.X","name":"Ethereum Classic","mentions":"19","upvotes":"68","rank_24h_ago":"68","mentions_24h_ago":"20"},{"rank":67,"ticker":"OG.X","name":"OG Fan Token","mentions":"18","upvotes":"37","rank_24h_ago":"39","mentions_24h_ago":"32"},{"rank":68,"ticker":"ENJ.X","name":"Enjin Coin","mentions":"18","upvotes":"44","rank_24h_ago":"86","mentions_24h_ago":"16"},{"rank":69,"ticker":"ID.X","name":"Everest","mentions":"17","upvotes":"26","rank_24h_ago":"36","mentions_24h_ago":"38"},{"rank":70,"ticker":"HNT.X","name":"Helium","mentions":"16","upvotes":"29","rank_24h_ago":"72","mentions_24h_ago":"18"},{"rank":71,"ticker":"HBAR.X","name":"Hedera Hashgraph","mentions":"16","upvotes":"31","rank_24h_ago":"45","mentions_24h_ago":"28"},{"rank":72,"ticker":"EA.X","name":"EA Token","mentions":"16","upvotes":"54","rank_24h_ago":"133","mentions_24h_ago":"8"},{"rank":73,"ticker":"GEM.X","name":"Gems","mentions":"15","upvotes":"1210","rank_24h_ago":"105","mentions_24h_ago":"9"},{"rank":74,"ticker":"AR.X","name":"Arweave","mentions":"15","upvotes":"22","rank_24h_ago":"98","mentions_24h_ago":"10"},{"rank":75,"ticker":"BUT.X","name":"BitUP Token","mentions":"15","upvotes":"21","rank_24h_ago":"67","mentions_24h_ago":"18"},{"rank":76,"ticker":"QNT.X","name":"Quant","mentions":"14","upvotes":"31","rank_24h_ago":"136","mentions_24h_ago":"7"},{"rank":77,"ticker":"NYC.X","name":"NewYorkCoin","mentions":"14","upvotes":"66","rank_24h_ago":"71","mentions_24h_ago":"20"},{"rank":78,"ticker":"TIME.X","name":"Chrono.tech","mentions":"13","upvotes":"21","rank_24h_ago":"115","mentions_24h_ago":"11"},{"rank":79,"ticker":"XPR.X","name":"Proton","mentions":"13","upvotes":"21","rank_24h_ago":"141","mentions_24h_ago":"7"},{"rank":80,"ticker":"SCRT.X","name":"Secret","mentions":"13","upvotes":"18","rank_24h_ago":"69","mentions_24h_ago":"18"},{"rank":81,"ticker":"NOW.X","name":"NOW Token","mentions":"13","upvotes":"39","rank_24h_ago":"77","mentions_24h_ago":"15"},{"rank":82,"ticker":"LOT.X","name":"Lukki Operating Token","mentions":"13","upvotes":"23","rank_24h_ago":"75","mentions_24h_ago":"17"},{"rank":83,"ticker":"HOGE.X","name":"Hoge Finance","mentions":"12","upvotes":"28","rank_24h_ago":"97","mentions_24h_ago":"11"},{"rank":84,"ticker":"AC.X","name":"ACoconut","mentions":"12","upvotes":"12","rank_24h_ago":"59","mentions_24h_ago":"26"},{"rank":85,"ticker":"TRAC.X","name":"OriginTrail","mentions":"12","upvotes":"51","rank_24h_ago":"49","mentions_24h_ago":"26"},{"rank":86,"ticker":"ERG.X","name":"Ergo","mentions":"12","upvotes":"32","rank_24h_ago":"61","mentions_24h_ago":"23"},{"rank":87,"ticker":"FB.X","name":"Facebook tokenized stock FTX","mentions":"12","upvotes":"15","rank_24h_ago":"80","mentions_24h_ago":"11"},{"rank":88,"ticker":"SYS.X","name":"Syscoin","mentions":"11","upvotes":"13","rank_24h_ago":"118","mentions_24h_ago":"7"},{"rank":89,"ticker":"DNA.X","name":"Metaverse Dualchain Network Architecture","mentions":"11","upvotes":"25","rank_24h_ago":"374","mentions_24h_ago":"1"},{"rank":90,"ticker":"UP.X","name":"UpToken","mentions":"11","upvotes":"2221","rank_24h_ago":"143","mentions_24h_ago":"8"},{"rank":91,"ticker":"ON.X","name":"OFIN Token","mentions":"11","upvotes":"23","rank_24h_ago":"134","mentions_24h_ago":"8"},{"rank":92,"ticker":"CPU.X","name":"CPUchain","mentions":"10","upvotes":"24","rank_24h_ago":"73","mentions_24h_ago":"23"},{"rank":93,"ticker":"VRA.X","name":"Verasity","mentions":"10","upvotes":"17","rank_24h_ago":"76","mentions_24h_ago":"14"},{"rank":94,"ticker":"AXS.X","name":"Axie Infinity","mentions":"10","upvotes":"20","rank_24h_ago":"91","mentions_24h_ago":"7"},{"rank":95,"ticker":"YT.X","name":"Cherry Token","mentions":"10","upvotes":"31","rank_24h_ago":"132","mentions_24h_ago":"9"},{"rank":96,"ticker":"GB.X","name":"GoldBlocks","mentions":"10","upvotes":"23","rank_24h_ago":"130","mentions_24h_ago":"9"},{"rank":97,"ticker":"SC.X","name":"Siacoin","mentions":"10","upvotes":"1116","rank_24h_ago":"146","mentions_24h_ago":"5"},{"rank":98,"ticker":"FLUX.X","name":"FLUX","mentions":"9","upvotes":"11","rank_24h_ago":"56","mentions_24h_ago":"25"},{"rank":99,"ticker":"CTSI.X","name":"Cartesi","mentions":"9","upvotes":"22","rank_24h_ago":"46","mentions_24h_ago":"26"},{"rank":100,"ticker":"UNI.X","name":"Uniswap","mentions":"9","upvotes":"14","rank_24h_ago":"88","mentions_24h_ago":"11"}]}